EESchema Schematic File Version 4
LIBS:screamzy-cache
EELAYER 26 0
EELAYER END
$Descr USLetter 11000 8500
encoding utf-8
Sheet 1 3
Title ""
Date ""
Rev ""
Comp ""
Comment1 ""
Comment2 ""
Comment3 ""
Comment4 ""
$EndDescr
$Comp
L Device:R_US R3
U 1 1 5C27A022
P 4400 1750
F 0 "R3" V 4500 1800 50  0000 C CNN
F 1 "10K" V 4500 1650 50  0000 C CNN
F 2 "Resistor_SMD:R_0805_2012Metric" V 4440 1740 50  0001 C CNN
F 3 "~" H 4400 1750 50  0001 C CNN
	1    4400 1750
	1    0    0    -1  
$EndComp
$Comp
L Device:R_US R1
U 1 1 5C27A0E6
P 4600 1750
F 0 "R1" V 4700 1800 50  0000 C CNN
F 1 "10K" V 4700 1650 50  0000 C CNN
F 2 "Resistor_SMD:R_0805_2012Metric" V 4640 1740 50  0001 C CNN
F 3 "~" H 4600 1750 50  0001 C CNN
	1    4600 1750
	1    0    0    -1  
$EndComp
$Comp
L Device:R_US R2
U 1 1 5C27A11A
P 6350 3150
F 0 "R2" V 6400 3250 50  0000 L CNN
F 1 "10K" V 6400 2900 50  0000 L CNN
F 2 "Resistor_SMD:R_0805_2012Metric" V 6390 3140 50  0001 C CNN
F 3 "~" H 6350 3150 50  0001 C CNN
	1    6350 3150
	1    0    0    -1  
$EndComp
$Comp
L Device:R_US R4
U 1 1 5C27A186
P 6250 1700
F 0 "R4" V 6350 1750 50  0000 L CNN
F 1 "10K" V 6350 1600 50  0000 L CNN
F 2 "Resistor_SMD:R_0805_2012Metric" V 6290 1690 50  0001 C CNN
F 3 "~" H 6250 1700 50  0001 C CNN
	1    6250 1700
	1    0    0    -1  
$EndComp
$Comp
L Switch:SW_Push SW1
U 1 1 5C27A2FB
P 4400 3050
F 0 "SW1" V 4446 3198 50  0000 L CNN
F 1 "reset" V 4355 3198 50  0000 L CNN
F 2 "Button_Switch_SMD:SW_SPST_FSMSM" H 4400 3250 50  0001 C CNN
F 3 "" H 4400 3250 50  0001 C CNN
	1    4400 3050
	0    -1   -1   0   
$EndComp
$Comp
L Switch:SW_Push SW2
U 1 1 5C27A44E
P 6500 3150
F 0 "SW2" V 6454 3298 50  0000 L CNN
F 1 "flash" V 6545 3298 50  0000 L CNN
F 2 "Button_Switch_SMD:SW_SPST_FSMSM" H 6500 3350 50  0001 C CNN
F 3 "" H 6500 3350 50  0001 C CNN
	1    6500 3150
	0    1    1    0   
$EndComp
Wire Wire Line
	6500 3350 6500 3550
$Comp
L Device:R_US R5
U 1 1 5C2873AC
P 6500 1700
F 0 "R5" V 6600 1750 50  0000 L CNN
F 1 "10K" V 6600 1600 50  0000 L CNN
F 2 "Resistor_SMD:R_0805_2012Metric" V 6540 1690 50  0001 C CNN
F 3 "~" H 6500 1700 50  0001 C CNN
	1    6500 1700
	1    0    0    -1  
$EndComp
Connection ~ 6250 1500
Wire Wire Line
	6250 1500 6250 1550
Wire Wire Line
	6500 1550 6500 1500
Wire Wire Line
	6350 3300 6350 3550
Wire Wire Line
	6050 2400 6500 2400
Wire Wire Line
	6250 1500 6500 1500
Connection ~ 6350 3550
Wire Wire Line
	6350 3550 6500 3550
Wire Wire Line
	4200 1500 4400 1500
Wire Wire Line
	6050 2500 6250 2500
Connection ~ 6500 2400
Wire Wire Line
	6050 2600 6350 2600
Wire Wire Line
	6350 2600 6350 3000
Wire Wire Line
	6500 2400 6500 2950
Wire Wire Line
	6250 1850 6250 2500
Wire Wire Line
	6500 1850 6500 2400
$Comp
L power:GND #PWR0101
U 1 1 5C5F1D85
P 5450 3550
F 0 "#PWR0101" H 5450 3300 50  0001 C CNN
F 1 "GND" H 5455 3377 50  0000 C CNN
F 2 "" H 5450 3550 50  0001 C CNN
F 3 "" H 5450 3550 50  0001 C CNN
	1    5450 3550
	1    0    0    -1  
$EndComp
Wire Wire Line
	6050 2700 6250 2700
Wire Wire Line
	5450 3550 6250 3550
Wire Wire Line
	4400 2850 4400 2000
Wire Wire Line
	4850 2000 4400 2000
Connection ~ 4400 2000
Wire Wire Line
	4400 2000 4400 1900
Wire Wire Line
	4600 1900 4600 2200
Wire Wire Line
	4600 2200 4850 2200
Wire Wire Line
	4600 1600 4600 1500
Connection ~ 4600 1500
Wire Wire Line
	4600 1500 4800 1500
Wire Wire Line
	4400 1600 4400 1500
Connection ~ 4400 1500
Wire Wire Line
	4400 1500 4600 1500
Wire Wire Line
	6250 2700 6250 3550
Connection ~ 6250 3550
Wire Wire Line
	6250 3550 6350 3550
Wire Wire Line
	4850 2700 4800 2700
Wire Wire Line
	4800 2700 4800 1500
Connection ~ 4800 1500
Wire Wire Line
	4800 1500 6250 1500
Text GLabel 4300 2100 0    50   Input ~ 0
ADC
Wire Wire Line
	4300 2100 4850 2100
Text GLabel 4300 2000 0    50   Input ~ 0
RST
Text GLabel 6750 2400 2    50   Input ~ 0
FLASH
Wire Wire Line
	4300 2000 4400 2000
Text GLabel 4300 2200 0    50   Input ~ 0
ENABLE
Wire Wire Line
	4300 2200 4600 2200
Connection ~ 4600 2200
Wire Wire Line
	6750 2500 6250 2500
Connection ~ 6250 2500
Text GLabel 2750 1200 2    50   Input ~ 0
ADC
Connection ~ 5450 3550
Wire Wire Line
	4400 3550 5450 3550
Wire Wire Line
	4400 3250 4400 3550
$Comp
L Connector:Conn_01x03_Male J2
U 1 1 5C7342DF
P 2300 1900
F 0 "J2" H 2150 1900 50  0000 C CNN
F 1 "WS2812_Conn" H 1950 1800 50  0000 C CNN
F 2 "Connector_PinHeader_2.54mm:PinHeader_1x03_P2.54mm_Vertical" H 2300 1900 50  0001 C CNN
F 3 "~" H 2300 1900 50  0001 C CNN
	1    2300 1900
	1    0    0    1   
$EndComp
$Comp
L power:+3.3V #PWR0110
U 1 1 5C7345B9
P 2750 1800
F 0 "#PWR0110" H 2750 1650 50  0001 C CNN
F 1 "+3.3V" V 2765 1928 50  0000 L CNN
F 2 "" H 2750 1800 50  0001 C CNN
F 3 "" H 2750 1800 50  0001 C CNN
	1    2750 1800
	0    1    1    0   
$EndComp
$Comp
L power:GND #PWR0111
U 1 1 5C734659
P 2750 2050
F 0 "#PWR0111" H 2750 1800 50  0001 C CNN
F 1 "GND" H 2755 1877 50  0000 C CNN
F 2 "" H 2750 2050 50  0001 C CNN
F 3 "" H 2750 2050 50  0001 C CNN
	1    2750 2050
	1    0    0    -1  
$EndComp
Text GLabel 2750 1900 2    50   Input ~ 0
LED_SIGNAL
Wire Wire Line
	2500 1900 2750 1900
Wire Wire Line
	2500 2000 2750 2000
Wire Wire Line
	2750 2000 2750 2050
$Comp
L power:+3.3V #PWR0113
U 1 1 5C739355
P 2150 3850
F 0 "#PWR0113" H 2150 3700 50  0001 C CNN
F 1 "+3.3V" V 2165 3978 50  0000 L CNN
F 2 "" H 2150 3850 50  0001 C CNN
F 3 "" H 2150 3850 50  0001 C CNN
	1    2150 3850
	0    -1   -1   0   
$EndComp
Wire Wire Line
	2150 3700 3350 3700
Wire Wire Line
	3350 3700 3350 3900
Wire Wire Line
	2800 3900 2800 3850
Wire Wire Line
	2800 3850 2400 3850
Wire Wire Line
	2500 4500 2400 4500
Wire Wire Line
	2400 4500 2400 3850
Connection ~ 2400 3850
Wire Wire Line
	2400 3850 2150 3850
$Comp
L power:GND #PWR0114
U 1 1 5C7414A6
P 3100 6050
F 0 "#PWR0114" H 3100 5800 50  0001 C CNN
F 1 "GND" H 3105 5877 50  0000 C CNN
F 2 "" H 3100 6050 50  0001 C CNN
F 3 "" H 3100 6050 50  0001 C CNN
	1    3100 6050
	1    0    0    -1  
$EndComp
Wire Wire Line
	3100 6050 3100 5900
Text GLabel 2150 4700 0    50   Input ~ 0
PWMA
Text GLabel 2150 5100 0    50   Input ~ 0
PWMB
Text GLabel 2150 4800 0    50   Input ~ 0
AIN1
Text GLabel 2150 4900 0    50   Input ~ 0
AIN2
Text GLabel 2150 5200 0    50   Input ~ 0
BIN1
Text GLabel 2150 5300 0    50   Input ~ 0
BIN2
Text GLabel 3950 4750 2    50   Input ~ 0
AOUT1
Text GLabel 3950 4850 2    50   Input ~ 0
AOUT2
Text GLabel 3950 5150 2    50   Input ~ 0
BOUT1
Text GLabel 3950 5250 2    50   Input ~ 0
BOUT2
Text GLabel 6750 2200 2    50   Input ~ 0
AIN1
Text GLabel 6750 2300 2    50   Input ~ 0
AIN2
Text GLabel 4700 2400 0    50   Input ~ 0
BIN1
Text GLabel 4700 2500 0    50   Input ~ 0
BIN2
Text GLabel 6750 2600 2    50   Input ~ 0
PWMA
Text GLabel 4700 2600 0    50   Input ~ 0
PWMB
Wire Wire Line
	6750 2600 6350 2600
Connection ~ 6350 2600
Wire Wire Line
	6750 2300 6050 2300
Wire Wire Line
	6750 2200 6050 2200
Wire Wire Line
	4850 2600 4700 2600
Wire Wire Line
	4700 2500 4850 2500
Wire Wire Line
	4700 2400 4850 2400
Wire Wire Line
	2500 4700 2150 4700
Wire Wire Line
	2150 5100 2500 5100
Wire Wire Line
	2500 5200 2150 5200
Wire Wire Line
	2150 5300 2500 5300
Wire Wire Line
	3700 5250 3950 5250
Wire Wire Line
	3700 5150 3950 5150
Wire Wire Line
	3700 4850 3950 4850
Wire Wire Line
	3700 4750 3950 4750
Text GLabel 6750 2500 2    50   Input ~ 0
LED_SIGNAL
Wire Wire Line
	6500 2400 6750 2400
$Comp
L Connector:Conn_01x02_Male J3
U 1 1 5C77D197
P 2300 2600
F 0 "J3" H 2150 2600 50  0000 C CNN
F 1 "MOTOR_LEFT" H 2000 2500 50  0000 C CNN
F 2 "misc:N20_MOTOR" H 2300 2600 50  0001 C CNN
F 3 "~" H 2300 2600 50  0001 C CNN
	1    2300 2600
	1    0    0    1   
$EndComp
$Comp
L Connector:Conn_01x02_Male J4
U 1 1 5C77D1F3
P 2300 3050
F 0 "J4" H 2150 2950 50  0000 C CNN
F 1 "MOTOR_RIGHT" H 1950 3050 50  0000 C CNN
F 2 "misc:N20_MOTOR" H 2300 3050 50  0001 C CNN
F 3 "~" H 2300 3050 50  0001 C CNN
	1    2300 3050
	1    0    0    1   
$EndComp
Text GLabel 3000 2500 2    50   Input ~ 0
AOUT1
Text GLabel 3000 2700 2    50   Input ~ 0
AOUT2
Text GLabel 3000 2950 2    50   Input ~ 0
BOUT1
Text GLabel 3000 3150 2    50   Input ~ 0
BOUT2
Wire Wire Line
	3000 2500 2800 2500
Wire Wire Line
	2500 2600 2650 2600
Wire Wire Line
	2500 2950 2800 2950
Wire Wire Line
	8050 5250 8200 5250
$Comp
L power:+3.3V #PWR0106
U 1 1 5C73F6E8
P 4200 1500
F 0 "#PWR0106" H 4200 1350 50  0001 C CNN
F 1 "+3.3V" V 4215 1628 50  0000 L CNN
F 2 "" H 4200 1500 50  0001 C CNN
F 3 "" H 4200 1500 50  0001 C CNN
	1    4200 1500
	0    -1   -1   0   
$EndComp
$Comp
L BLB_PARTS:ESP-12F U2
U 1 1 5C8EB578
P 5450 2500
F 0 "U2" H 5450 3367 50  0000 C CNN
F 1 "ESP-12F" H 5450 3276 50  0000 C CNN
F 2 "RF_Module:ESP-12E" V 5400 2650 50  0001 C CNN
F 3 "http://wiki.ai-thinker.com/_media/esp8266/esp8266_series_modules_user_manual_v1.1.pdf" H 5100 2600 50  0001 C CNN
	1    5450 2500
	1    0    0    -1  
$EndComp
$Comp
L Connector:Conn_01x03_Male J1
U 1 1 5C8EE957
P 2300 1300
F 0 "J1" H 2200 1300 50  0000 R CNN
F 1 "MIC" H 2200 1250 50  0000 R CNN
F 2 "Connector_PinHeader_2.54mm:PinHeader_1x03_P2.54mm_Vertical" H 2300 1300 50  0001 C CNN
F 3 "~" H 2300 1300 50  0001 C CNN
	1    2300 1300
	1    0    0    1   
$EndComp
$Comp
L power:+3.3V #PWR0102
U 1 1 5C8F504C
P 2750 1300
F 0 "#PWR0102" H 2750 1150 50  0001 C CNN
F 1 "+3.3V" V 2765 1428 50  0000 L CNN
F 2 "" H 2750 1300 50  0001 C CNN
F 3 "" H 2750 1300 50  0001 C CNN
	1    2750 1300
	0    1    -1   0   
$EndComp
$Comp
L power:GND #PWR0103
U 1 1 5C8F511F
P 2750 1450
F 0 "#PWR0103" H 2750 1200 50  0001 C CNN
F 1 "GND" H 2755 1277 50  0000 C CNN
F 2 "" H 2750 1450 50  0001 C CNN
F 3 "" H 2750 1450 50  0001 C CNN
	1    2750 1450
	-1   0    0    -1  
$EndComp
Wire Wire Line
	2750 1200 2500 1200
Wire Wire Line
	2750 1300 2500 1300
Wire Wire Line
	8500 5250 8800 5250
$Comp
L power:GND #PWR0104
U 1 1 5C78D30D
P 8800 6400
F 0 "#PWR0104" H 8800 6150 50  0001 C CNN
F 1 "GND" H 8805 6227 50  0000 C CNN
F 2 "" H 8800 6400 50  0001 C CNN
F 3 "" H 8800 6400 50  0001 C CNN
	1    8800 6400
	1    0    0    -1  
$EndComp
Wire Wire Line
	8800 5250 8800 6300
$Comp
L Switch:SW_SPDT_MSM SW3
U 1 1 5CBE83EF
P 7850 5250
F 0 "SW3" H 7850 4925 50  0000 C CNN
F 1 "SW_SPDT_MSM" H 7850 5016 50  0000 C CNN
F 2 "misc:BUTTON_SPST_THM_3PIN" H 7850 5250 50  0001 C CNN
F 3 "" H 7850 5250 50  0001 C CNN
	1    7850 5250
	-1   0    0    1   
$EndComp
$Sheet
S 8350 1800 900  1100
U 5CBE3D94
F0 "PGMR1" 50
F1 "BLOCK_PGMR.sch" 50
F2 "PGMR_TX" B L 8350 2000 50 
F3 "PGMR_RX" B L 8350 2200 50 
F4 "PGMR_5V" B L 8350 2550 50 
F5 "PGMR_GND" B L 8350 2750 50 
$EndSheet
Wire Wire Line
	6050 2000 8350 2000
Wire Wire Line
	8050 2100 8050 2200
Wire Wire Line
	8050 2200 8350 2200
Wire Wire Line
	6050 2100 8050 2100
$Comp
L power:VCC #PWR0105
U 1 1 5CBE8DC1
P 7250 5150
F 0 "#PWR0105" H 7250 5000 50  0001 C CNN
F 1 "VCC" V 7350 5150 50  0000 L CNN
F 2 "" H 7250 5150 50  0001 C CNN
F 3 "" H 7250 5150 50  0001 C CNN
	1    7250 5150
	0    -1   -1   0   
$EndComp
$Comp
L power:VCC #PWR0107
U 1 1 5CBEB460
P 8050 2550
F 0 "#PWR0107" H 8050 2400 50  0001 C CNN
F 1 "VCC" V 8068 2677 50  0000 L CNN
F 2 "" H 8050 2550 50  0001 C CNN
F 3 "" H 8050 2550 50  0001 C CNN
	1    8050 2550
	0    -1   -1   0   
$EndComp
Wire Wire Line
	8050 2550 8350 2550
$Comp
L power:GND #PWR0108
U 1 1 5CBF00FB
P 8050 2800
F 0 "#PWR0108" H 8050 2550 50  0001 C CNN
F 1 "GND" H 8055 2627 50  0000 C CNN
F 2 "" H 8050 2800 50  0001 C CNN
F 3 "" H 8050 2800 50  0001 C CNN
	1    8050 2800
	1    0    0    -1  
$EndComp
Wire Wire Line
	8050 2800 8050 2750
Wire Wire Line
	8050 2750 8350 2750
$Comp
L power:VCC #PWR0109
U 1 1 5CBF76AB
P 6500 5150
F 0 "#PWR0109" H 6500 5000 50  0001 C CNN
F 1 "VCC" V 6400 5200 50  0000 L CNN
F 2 "" H 6500 5150 50  0001 C CNN
F 3 "" H 6500 5150 50  0001 C CNN
	1    6500 5150
	0    1    1    0   
$EndComp
$Comp
L power:GND #PWR0112
U 1 1 5CBF76F2
P 6500 5450
F 0 "#PWR0112" H 6500 5200 50  0001 C CNN
F 1 "GND" H 6505 5277 50  0000 C CNN
F 2 "" H 6500 5450 50  0001 C CNN
F 3 "" H 6500 5450 50  0001 C CNN
	1    6500 5450
	1    0    0    -1  
$EndComp
Wire Wire Line
	6000 5150 6500 5150
Wire Wire Line
	6000 5350 6500 5350
Wire Wire Line
	6500 5350 6500 5450
$Comp
L power:+3.3V #PWR0115
U 1 1 5CBFC869
P 5050 5250
F 0 "#PWR0115" H 5050 5100 50  0001 C CNN
F 1 "+3.3V" V 5065 5378 50  0000 L CNN
F 2 "" H 5050 5250 50  0001 C CNN
F 3 "" H 5050 5250 50  0001 C CNN
	1    5050 5250
	0    -1   -1   0   
$EndComp
Wire Wire Line
	5050 5250 5300 5250
$Comp
L power:VCC #PWR0116
U 1 1 5CBFF2C5
P 2150 3700
F 0 "#PWR0116" H 2150 3550 50  0001 C CNN
F 1 "VCC" V 2168 3827 50  0000 L CNN
F 2 "" H 2150 3700 50  0001 C CNN
F 3 "" H 2150 3700 50  0001 C CNN
	1    2150 3700
	0    -1   -1   0   
$EndComp
$Comp
L Device:C_Small C2
U 1 1 5CC0FA10
P 2800 3050
F 0 "C2" H 2900 3050 50  0000 L CNN
F 1 "0.1uF" H 3000 3050 50  0000 L CNN
F 2 "Capacitor_SMD:C_0805_2012Metric" H 2800 3050 50  0001 C CNN
F 3 "~" H 2800 3050 50  0001 C CNN
	1    2800 3050
	1    0    0    -1  
$EndComp
Connection ~ 2800 2950
Wire Wire Line
	2800 2950 3000 2950
$Comp
L Device:C_Small C1
U 1 1 5CC0FA74
P 2800 2600
F 0 "C1" H 2900 2600 50  0000 L CNN
F 1 "0.1uF" H 3000 2600 50  0000 L CNN
F 2 "Capacitor_SMD:C_0805_2012Metric" H 2800 2600 50  0001 C CNN
F 3 "~" H 2800 2600 50  0001 C CNN
	1    2800 2600
	1    0    0    -1  
$EndComp
Connection ~ 2800 2500
Wire Wire Line
	2800 2500 2500 2500
Wire Wire Line
	2500 3050 2650 3050
Wire Wire Line
	2650 3050 2650 3150
Wire Wire Line
	2650 3150 2800 3150
Connection ~ 2800 3150
Wire Wire Line
	2800 3150 3000 3150
Wire Wire Line
	2650 2600 2650 2700
Wire Wire Line
	2650 2700 2800 2700
Connection ~ 2800 2700
Wire Wire Line
	2800 2700 3000 2700
Wire Wire Line
	2750 1400 2750 1450
Wire Wire Line
	2750 1400 2500 1400
$Sheet
S 5300 5050 700  400 
U 5CBF914C
F0 "LDO1" 39
F1 "BLOCK_LDO_HT73333A.sch" 39
F2 "LDO_IN" I R 6000 5150 50 
F3 "LDO_OUT" I L 5300 5250 50 
F4 "LDO_GND" I R 6000 5350 50 
$EndSheet
$Comp
L BLB_PARTS:TB6612FNG_Board U1
U 1 1 5CC03976
P 3100 4900
F 0 "U1" H 3100 5450 50  0000 C CNN
F 1 "TB6612FNG_Board" V 3050 4900 50  0000 C CNN
F 2 "TB6612FNG:TB6612FNG_Board" H 3150 6400 50  0001 C CNN
F 3 "https://toshiba.semicon-storage.com/us/product/linear/motordriver/detail.TB6612FNG.html" H 3550 5500 50  0001 C CNN
	1    3100 4900
	1    0    0    -1  
$EndComp
Wire Wire Line
	2150 4800 2500 4800
Wire Wire Line
	2150 4900 2500 4900
$Comp
L BLB_PARTS:TP4056_BOARD U3
U 1 1 5CC24E2C
P 8000 6200
F 0 "U3" H 8000 6665 50  0000 C CNN
F 1 "TP4056_BOARD" H 8000 6574 50  0000 C CNN
F 2 "misc:TP4056_Board" H 8000 6200 50  0001 C CNN
F 3 "https://dlnmh9ip6v2uc.cloudfront.net/datasheets/Prototyping/TP4056.pdf" H 8000 6200 50  0001 C CNN
	1    8000 6200
	1    0    0    -1  
$EndComp
$Comp
L power:GND #PWR0117
U 1 1 5CC24F8E
P 7350 6400
F 0 "#PWR0117" H 7350 6150 50  0001 C CNN
F 1 "GND" H 7355 6227 50  0000 C CNN
F 2 "" H 7350 6400 50  0001 C CNN
F 3 "" H 7350 6400 50  0001 C CNN
	1    7350 6400
	1    0    0    -1  
$EndComp
$Comp
L power:VCC #PWR0118
U 1 1 5CC24FBD
P 7350 6000
F 0 "#PWR0118" H 7350 5850 50  0001 C CNN
F 1 "VCC" V 7367 6128 50  0000 L CNN
F 2 "" H 7350 6000 50  0001 C CNN
F 3 "" H 7350 6000 50  0001 C CNN
	1    7350 6000
	0    -1   -1   0   
$EndComp
Wire Wire Line
	7650 5350 7500 5350
Wire Wire Line
	7500 5350 7500 5500
Wire Wire Line
	7500 5500 8650 5500
Wire Wire Line
	8650 5500 8650 6000
Wire Wire Line
	8650 6000 8550 6000
$Comp
L Device:Battery_Cell BT1
U 1 1 5CC28D05
P 8400 5250
F 0 "BT1" V 8655 5300 50  0000 C CNN
F 1 "Battery_Cell" V 8564 5300 50  0000 C CNN
F 2 "Battery:BatteryHolder_Keystone_1042_1x18650" V 8400 5310 50  0001 C CNN
F 3 "~" V 8400 5310 50  0001 C CNN
	1    8400 5250
	0    -1   -1   0   
$EndComp
Wire Wire Line
	7450 6300 7350 6300
Wire Wire Line
	7350 6300 7350 6400
Wire Wire Line
	7350 6000 7450 6000
Wire Wire Line
	7250 5150 7650 5150
Wire Wire Line
	8550 6300 8800 6300
Connection ~ 8800 6300
Wire Wire Line
	8800 6300 8800 6400
Connection ~ 4400 3550
Wire Wire Line
	2500 1800 2750 1800
$EndSCHEMATC
